STATS506-HW4-JunjieZeng
…
flights |> 
    group_by(dest) |> 
    filter(n() >= 10) |> 
    summarize(avg_arr_delay = mean(arr_delay, na.rm = TRUE), 
              median_arr_delay = median(arr_delay, na.rm = TRUE)) |> 
    select(airport = dest, avg_arr_delay, median_arr_delay) |> 
    arrange(-avg_arr_delay) 

# A tibble: 102 × 3
   airport avg_arr_delay median_arr_delay
   <chr>           <dbl>            <dbl>
 1 CAE              41.8               28
 2 TUL              33.7               14
 3 OKC              30.6               16
 4 JAC              28.1               15
 5 TYS              24.1                2
 6 MSN              20.2                1
 7 RIC              20.1                1
 8 CAK              19.7                3
 9 DSM              19.0                0
10 GRR              18.2                1
# ℹ 92 more rows
…
